DOI,"<license_ref applies_to=""vor"">",<vor_lic_start_date>,"<license_ref applies_to=""am"">",<am_lic_start_date>,"<license_ref applies_to=""tdm"">",<tdm_lic_start_date>,"<resource content_version=""vor"" mime_type=""application/pdf"">","<resource content_version=""am"" mime_type=""application/pdf"">"
10.5555/nar/gkr1016,http://creativecommons.org/licenses/by-nc/3.0,2011-11-21,http://www.abcpublishing.org/licenses/default--license,2011-11-21,http://creativecommons.org/licenses/by-nc/3.0,2011-11-21,http://www.abcpublishing.org/content/40/2/e13.full.pdf,http://www.abcpublishing.org/content/40/2/e13.full.pdf
10.5555/nar/gkr1016,http://creativecommons.org/licenses/by-nc/3.0,2011-11-21,http://www.abcpublishing.org/licenses/default--license,2011-11-21,http://creativecommons.org/licenses/by-nc/3.0,2011-11-21,http://www.abcpublishing.org/content/40/2/e13.full.pdf,http://www.abcpublishing.org/content/40/2/e13.full.pdf
10.5555/nar/gkr1071,http://creativecommons.org/licenses/by-nc/3.0,2011-11-23,http://www.abcpublishing.org/licenses/default--license,2011-11-21,http://creativecommons.org/licenses/by-nc/3.0,2011-11-23,http://www.abcpublishing.org/content/40/2/e15.full.pdf,http://www.abcpublishing.org/content/40/2/e15.full.pdf
10.5555/nar/gkr629,http://creativecommons.org/licenses/by-nc/3.0,2011-09-14,http://www.abcpublishing.org/licenses/default--license,2011-11-21,http://creativecommons.org/licenses/by-nc/3.0,2011-09-14,http://www.abcpublishing.org/content/40/2/487.full.pdf,http://www.abcpublishing.org/content/40/2/487.full.pdf
10.5555/nar/gkr629,http://creativecommons.org/licenses/by-nc/3.0,2011-09-14,http://www.abcpublishing.org/licenses/default--license,2011-11-21,http://creativecommons.org/licenses/by-nc/3.0,2011-09-14,http://www.abcpublishing.org/content/40/2/487.full.pdf,http://www.abcpublishing.org/content/40/2/487.full.pdf
10.5555/nar/gkr701,http://creativecommons.org/licenses/by-nc/3.0,2011-09-14,http://www.abcpublishing.org/licenses/default--license,2011-11-21,http://creativecommons.org/licenses/by-nc/3.0,2011-09-14,http://www.abcpublishing.org/content/40/2/541.full.pdf,http://www.abcpublishing.org/content/40/2/541.full.pdf
10.5555/nar/gkr705,http://creativecommons.org/licenses/by-nc/3.0,2011-09-28,http://www.abcpublishing.org/licenses/default--license,2011-11-21,http://creativecommons.org/licenses/by-nc/3.0,2011-09-28,http://www.abcpublishing.org/content/40/2/638.full.pdf,http://www.abcpublishing.org/content/40/2/638.full.pdf
10.5555/nar/gkr711,http://creativecommons.org/licenses/by-nc/3.0,2011-09-21,http://www.abcpublishing.org/licenses/default--license,2011-11-21,http://creativecommons.org/licenses/by-nc/3.0,2011-09-21,http://www.abcpublishing.org/content/40/2/530.full.pdf,http://www.abcpublishing.org/content/40/2/530.full.pdf
10.5555/nar/gkr711,http://creativecommons.org/licenses/by-nc/3.0,2011-09-21,http://www.abcpublishing.org/licenses/default--license,2011-11-21,http://creativecommons.org/licenses/by-nc/3.0,2011-09-21,http://www.abcpublishing.org/content/40/2/530.full.pdf,http://www.abcpublishing.org/content/40/2/530.full.pdf
10.5555/nar/gkr711,http://creativecommons.org/licenses/by-nc/3.0,2011-09-21,http://www.abcpublishing.org/licenses/default--license,2011-11-21,http://creativecommons.org/licenses/by-nc/3.0,2011-09-21,http://www.abcpublishing.org/content/40/2/530.full.pdf,http://www.abcpublishing.org/content/40/2/530.full.pdf
10.5555/nar/gkr711,http://creativecommons.org/licenses/by-nc/3.0,2011-09-21,http://www.abcpublishing.org/licenses/default--license,2011-11-21,http://creativecommons.org/licenses/by-nc/3.0,2011-09-21,http://www.abcpublishing.org/content/40/2/530.full.pdf,http://www.abcpublishing.org/content/40/2/530.full.pdf
10.5555/nar/gkr715,http://creativecommons.org/licenses/by-nc/3.0,2011-09-21,http://www.abcpublishing.org/licenses/default--license,2011-11-21,http://creativecommons.org/licenses/by-nc/3.0,2011-09-21,http://www.abcpublishing.org/content/40/2/884.full.pdf,http://www.abcpublishing.org/content/40/2/884.full.pdf
10.5555/nar/gkr725,http://creativecommons.org/licenses/by-nc/3.0,2011-09-21,http://www.abcpublishing.org/licenses/default--license,2011-11-21,http://creativecommons.org/licenses/by-nc/3.0,2011-09-21,http://www.abcpublishing.org/content/40/2/600.full.pdf,http://www.abcpublishing.org/content/40/2/600.full.pdf
10.5555/nar/gkr726,http://creativecommons.org/licenses/by-nc/3.0,2011-09-14,http://www.abcpublishing.org/licenses/default--license,2011-11-21,http://creativecommons.org/licenses/by-nc/3.0,2011-09-14,http://www.abcpublishing.org/content/40/2/751.full.pdf,http://www.abcpublishing.org/content/40/2/751.full.pdf
10.5555/nar/gkr726,http://creativecommons.org/licenses/by-nc/3.0,2011-09-14,http://www.abcpublishing.org/licenses/default--license,2011-11-21,http://creativecommons.org/licenses/by-nc/3.0,2011-09-14,http://www.abcpublishing.org/content/40/2/751.full.pdf,http://www.abcpublishing.org/content/40/2/751.full.pdf
10.5555/nar/gkr727,http://creativecommons.org/licenses/by-nc/3.0,2011-09-14,http://www.abcpublishing.org/licenses/default--license,2011-11-21,http://creativecommons.org/licenses/by-nc/3.0,2011-09-14,http://www.abcpublishing.org/content/40/2/670.full.pdf,http://www.abcpublishing.org/content/40/2/670.full.pdf
10.5555/nar/gkr727,http://creativecommons.org/licenses/by-nc/3.0,2011-09-14,http://www.abcpublishing.org/licenses/default--license,2011-11-21,http://creativecommons.org/licenses/by-nc/3.0,2011-09-14,http://www.abcpublishing.org/content/40/2/670.full.pdf,http://www.abcpublishing.org/content/40/2/670.full.pdf
10.5555/nar/gkr728,http://creativecommons.org/licenses/by-nc/3.0,2011-09-21,http://www.abcpublishing.org/licenses/default--license,2011-11-21,http://creativecommons.org/licenses/by-nc/3.0,2011-09-21,http://www.abcpublishing.org/content/40/2/813.full.pdf,http://www.abcpublishing.org/content/40/2/813.full.pdf
10.5555/nar/gkr728,http://creativecommons.org/licenses/by-nc/3.0,2011-09-21,http://www.abcpublishing.org/licenses/default--license,2011-11-21,http://creativecommons.org/licenses/by-nc/3.0,2011-09-21,http://www.abcpublishing.org/content/40/2/813.full.pdf,http://www.abcpublishing.org/content/40/2/813.full.pdf
10.5555/nar/gkr730,,,,,http://creativecommons.org/licenses/by-nc/3.0,2011-09-14,,
10.5555/nar/gkr730,,,,,http://creativecommons.org/licenses/by-nc/3.0,2011-09-14,,
10.5555/nar/gkr730,,,,,http://creativecommons.org/licenses/by-nc/3.0,2011-09-14,,
10.5555/nar/gkr731,http://creativecommons.org/licenses/by-nc/3.0,2011-09-14,http://www.abcpublishing.org/licenses/default--license,2011-11-21,http://creativecommons.org/licenses/by-nc/3.0,2011-09-14,http://www.abcpublishing.org/content/40/2/499.full.pdf,http://www.abcpublishing.org/content/40/2/499.full.pdf
10.5555/nar/gkr731,http://creativecommons.org/licenses/by-nc/3.0,2011-09-14,http://www.abcpublishing.org/licenses/default--license,2011-11-21,http://creativecommons.org/licenses/by-nc/3.0,2011-09-14,http://www.abcpublishing.org/content/40/2/499.full.pdf,http://www.abcpublishing.org/content/40/2/499.full.pdf
10.5555/nar/gkr731,http://creativecommons.org/licenses/by-nc/3.0,2011-09-14,http://www.abcpublishing.org/licenses/default--license,2011-11-21,http://creativecommons.org/licenses/by-nc/3.0,2011-09-14,http://www.abcpublishing.org/content/40/2/499.full.pdf,http://www.abcpublishing.org/content/40/2/499.full.pdf
10.5555/nar/gkr731,http://creativecommons.org/licenses/by-nc/3.0,2011-09-14,http://www.abcpublishing.org/licenses/default--license,2011-11-21,http://creativecommons.org/licenses/by-nc/3.0,2011-09-14,http://www.abcpublishing.org/content/40/2/499.full.pdf,http://www.abcpublishing.org/content/40/2/499.full.pdf
10.5555/nar/gkr733,http://creativecommons.org/licenses/by-nc/3.0,2011-09-14,http://www.abcpublishing.org/licenses/default--license,2011-11-21,http://creativecommons.org/licenses/by-nc/3.0,2011-09-14,http://www.abcpublishing.org/content/40/2/861.full.pdf,http://www.abcpublishing.org/content/40/2/861.full.pdf
10.5555/nar/gkr733,http://creativecommons.org/licenses/by-nc/3.0,2011-09-14,http://www.abcpublishing.org/licenses/default--license,2011-11-21,http://creativecommons.org/licenses/by-nc/3.0,2011-09-14,http://www.abcpublishing.org/content/40/2/861.full.pdf,http://www.abcpublishing.org/content/40/2/861.full.pdf
10.5555/nar/gkr744,http://creativecommons.org/licenses/by-nc/3.0,2011-09-20,http://www.abcpublishing.org/licenses/default--license,2011-11-21,http://creativecommons.org/licenses/by-nc/3.0,2011-09-20,http://www.abcpublishing.org/content/40/2/701.full.pdf,http://www.abcpublishing.org/content/40/2/701.full.pdf
10.5555/nar/gkr746,http://creativecommons.org/licenses/by-nc/3.0,2011-09-28,http://www.abcpublishing.org/licenses/default--license,2011-11-21,http://creativecommons.org/licenses/by-nc/3.0,2011-09-28,http://www.abcpublishing.org/content/40/2/650.full.pdf,http://www.abcpublishing.org/content/40/2/650.full.pdf
10.5555/nar/gkr747,http://creativecommons.org/licenses/by-nc/3.0,2011-09-28,http://www.abcpublishing.org/licenses/default--license,2011-11-21,http://creativecommons.org/licenses/by-nc/3.0,2011-09-28,http://www.abcpublishing.org/content/40/2/801.full.pdf,http://www.abcpublishing.org/content/40/2/801.full.pdf
10.5555/nar/gkr748,http://creativecommons.org/licenses/by-nc/3.0,2011-09-27,http://www.abcpublishing.org/licenses/default--license,2011-11-21,http://creativecommons.org/licenses/by-nc/3.0,2011-09-27,http://www.abcpublishing.org/content/40/2/726.full.pdf,http://www.abcpublishing.org/content/40/2/726.full.pdf
10.5555/nar/gkr748,http://creativecommons.org/licenses/by-nc/3.0,2011-09-27,http://www.abcpublishing.org/licenses/default--license,2011-11-21,http://creativecommons.org/licenses/by-nc/3.0,2011-09-27,http://www.abcpublishing.org/content/40/2/726.full.pdf,http://www.abcpublishing.org/content/40/2/726.full.pdf
10.5555/nar/gkr748,http://creativecommons.org/licenses/by-nc/3.0,2011-09-27,http://www.abcpublishing.org/licenses/default--license,2011-11-21,http://creativecommons.org/licenses/by-nc/3.0,2011-09-27,http://www.abcpublishing.org/content/40/2/726.full.pdf,http://www.abcpublishing.org/content/40/2/726.full.pdf
10.5555/nar/gkr749,http://creativecommons.org/licenses/by-nc/3.0,2011-09-21,http://www.abcpublishing.org/licenses/default--license,2011-11-21,http://creativecommons.org/licenses/by-nc/3.0,2011-09-21,http://www.abcpublishing.org/content/40/2/914.full.pdf,http://www.abcpublishing.org/content/40/2/914.full.pdf
10.5555/nar/gkr749,http://creativecommons.org/licenses/by-nc/3.0,2011-09-21,http://www.abcpublishing.org/licenses/default--license,2011-11-21,http://creativecommons.org/licenses/by-nc/3.0,2011-09-21,http://www.abcpublishing.org/content/40/2/914.full.pdf,http://www.abcpublishing.org/content/40/2/914.full.pdf
10.5555/nar/gkr751,,2011-09-21,http://www.abcpublishing.org/licenses/default--license,2011-11-21,http://creativecommons.org/licenses/by-nc/3.0,2011-09-21,http://www.abcpublishing.org/content/40/2/892.full.pdf,http://www.abcpublishing.org/content/40/2/892.full.pdf
10.5555/nar/gkr751,,2011-09-21,http://www.abcpublishing.org/licenses/default--license,2011-11-21,http://creativecommons.org/licenses/by-nc/3.0,2011-09-21,http://www.abcpublishing.org/content/40/2/892.full.pdf,http://www.abcpublishing.org/content/40/2/892.full.pdf
10.5555/nar/gkr752,,2011-09-16,http://www.abcpublishing.org/licenses/default--license,2011-11-21,http://creativecommons.org/licenses/by-nc/3.0,2011-09-16,http://www.abcpublishing.org/content/40/2/553.full.pdf,http://www.abcpublishing.org/content/40/2/553.full.pdf
10.5555/nar/gkr753,,2011-09-16,http://www.abcpublishing.org/licenses/default--license,2011-11-21,http://creativecommons.org/licenses/by-nc/3.0,2011-09-16,http://www.abcpublishing.org/content/40/2/569.full.pdf,http://www.abcpublishing.org/content/40/2/569.full.pdf
10.5555/nar/gkr754,,2011-09-24,http://www.abcpublishing.org/licenses/default--license,2011-11-21,http://creativecommons.org/licenses/by-nc/3.0,2011-09-24,http://www.abcpublishing.org/content/40/2/625.full.pdf,http://www.abcpublishing.org/content/40/2/625.full.pdf
10.5555/nar/gkr757,,2011-09-19,http://www.abcpublishing.org/licenses/default--license,2011-11-21,http://creativecommons.org/licenses/by-nc/3.0,2011-09-19,http://www.abcpublishing.org/content/40/2/581.full.pdf,http://www.abcpublishing.org/content/40/2/581.full.pdf
10.5555/nar/gkr759,,2011-09-20,http://www.abcpublishing.org/licenses/default--license,2011-11-21,http://creativecommons.org/licenses/by-nc/3.0,2011-09-20,http://www.abcpublishing.org/content/40/2/871.full.pdf,http://www.abcpublishing.org/content/40/2/871.full.pdf
10.5555/nar/gkr759,,2011-09-20,http://www.abcpublishing.org/licenses/default--license,2011-11-21,http://creativecommons.org/licenses/by-nc/3.0,2011-09-20,http://www.abcpublishing.org/content/40/2/871.full.pdf,http://www.abcpublishing.org/content/40/2/871.full.pdf
10.5555/nar/gkr760,,2011-09-19,http://www.abcpublishing.org/licenses/default--license,2011-11-21,http://creativecommons.org/licenses/by-nc/3.0,2011-09-19,http://www.abcpublishing.org/content/40/2/594.full.pdf,http://www.abcpublishing.org/content/40/2/594.full.pdf
10.5555/nar/gkr767,,2011-09-28,http://www.abcpublishing.org/licenses/default--license,2011-11-21,http://creativecommons.org/licenses/by-nc/3.0,2011-09-28,http://www.abcpublishing.org/content/40/2/828.full.pdf,http://www.abcpublishing.org/content/40/2/828.full.pdf
10.5555/nar/gkr769,,2011-09-16,http://www.abcpublishing.org/licenses/default--license,2011-11-21,http://creativecommons.org/licenses/by-nc/3.0,2011-09-16,http://www.abcpublishing.org/content/40/2/682.full.pdf,http://www.abcpublishing.org/content/40/2/682.full.pdf
10.5555/nar/gkr769,,2011-09-16,http://www.abcpublishing.org/licenses/default--license,2011-11-21,http://creativecommons.org/licenses/by-nc/3.0,2011-09-16,http://www.abcpublishing.org/content/40/2/682.full.pdf,http://www.abcpublishing.org/content/40/2/682.full.pdf
10.5555/nar/gkr772,,2011-09-22,http://www.abcpublishing.org/licenses/default--license,2011-11-21,http://creativecommons.org/licenses/by-nc/3.0,2011-09-22,http://www.abcpublishing.org/content/40/2/905.full.pdf,http://www.abcpublishing.org/content/40/2/905.full.pdf
10.5555/nar/gkr772,,2011-09-22,http://www.abcpublishing.org/licenses/default--license,2011-11-21,http://creativecommons.org/licenses/by-nc/3.0,2011-09-22,http://www.abcpublishing.org/content/40/2/905.full.pdf,http://www.abcpublishing.org/content/40/2/905.full.pdf
10.5555/nar/gkr772,,2011-09-22,http://www.abcpublishing.org/licenses/default--license,2011-11-21,http://creativecommons.org/licenses/by-nc/3.0,2011-09-22,http://www.abcpublishing.org/content/40/2/905.full.pdf,http://www.abcpublishing.org/content/40/2/905.full.pdf
10.5555/nar/gkr781,,2011-09-29,http://www.abcpublishing.org/licenses/default--license,2011-11-21,http://creativecommons.org/licenses/by-nc/3.0,2011-09-29,http://www.abcpublishing.org/content/40/2/660.full.pdf,http://www.abcpublishing.org/content/40/2/660.full.pdf
10.5555/nar/gkr782,,2011-09-29,http://www.abcpublishing.org/licenses/default--license,2011-11-21,http://creativecommons.org/licenses/by-nc/3.0,2011-09-29,http://www.abcpublishing.org/content/40/2/837.full.pdf,http://www.abcpublishing.org/content/40/2/837.full.pdf
10.5555/nar/gkr785,,2011-09-27,http://www.abcpublishing.org/licenses/default--license,2011-11-21,http://creativecommons.org/licenses/by-nc/3.0,2011-09-27,http://www.abcpublishing.org/content/40/2/739.full.pdf,http://www.abcpublishing.org/content/40/2/739.full.pdf
10.5555/nar/gkr785,,2011-09-27,http://www.abcpublishing.org/licenses/default--license,2011-11-21,http://creativecommons.org/licenses/by-nc/3.0,2011-09-27,http://www.abcpublishing.org/content/40/2/739.full.pdf,http://www.abcpublishing.org/content/40/2/739.full.pdf
10.5555/nar/gkr787,,2011-09-23,http://www.abcpublishing.org/licenses/default--license,2011-11-21,http://creativecommons.org/licenses/by-nc/3.0,2011-09-23,http://www.abcpublishing.org/content/40/2/614.full.pdf,http://www.abcpublishing.org/content/40/2/614.full.pdf
10.5555/nar/gkr787,,2011-09-23,http://www.abcpublishing.org/licenses/default--license,2011-11-21,http://creativecommons.org/licenses/by-nc/3.0,2011-09-23,http://www.abcpublishing.org/content/40/2/614.full.pdf,http://www.abcpublishing.org/content/40/2/614.full.pdf
10.5555/nar/gkr787,,2011-09-23,http://www.abcpublishing.org/licenses/default--license,2011-11-21,http://creativecommons.org/licenses/by-nc/3.0,2011-09-23,http://www.abcpublishing.org/content/40/2/614.full.pdf,http://www.abcpublishing.org/content/40/2/614.full.pdf
10.5555/nar/gkr788,http://creativecommons.org/licenses/by-nc/3.0,2011-09-29,http://www.abcpublishing.org/licenses/default--license,2011-11-21,http://creativecommons.org/licenses/by-nc/3.0,2011-09-29,http://www.abcpublishing.org/content/40/2/847.full.pdf,http://www.abcpublishing.org/content/40/2/847.full.pdf
10.5555/nar/gkr789,http://creativecommons.org/licenses/by-nc/3.0,2011-09-24,http://www.abcpublishing.org/licenses/default--license,2011-11-21,http://creativecommons.org/licenses/by-nc/3.0,2011-09-24,http://www.abcpublishing.org/content/40/2/928.full.pdf,http://www.abcpublishing.org/content/40/2/928.full.pdf
10.5555/nar/gkr897,http://creativecommons.org/licenses/by-nc/3.0,2011-11-21,http://www.abcpublishing.org/licenses/default--license,2011-11-21,http://creativecommons.org/licenses/by-nc/3.0,2011-11-21,http://www.abcpublishing.org/content/40/2/e14.full.pdf,http://www.abcpublishing.org/content/40/2/e14.full.pdf
10.5555/nar/gkr995,http://creativecommons.org/licenses/by-nc/3.0,2011-11-17,http://www.abcpublishing.org/licenses/default--license,2011-11-21,http://creativecommons.org/licenses/by-nc/3.0,2011-11-17,http://www.abcpublishing.org/content/40/2/e12.full.pdf,http://www.abcpublishing.org/content/40/2/e12.full.pdf
10.5555/nar/gkr1000,http://creativecommons.org/licenses/by-nc/3.0,2011-11-29,http://www.abcpublishing.org/licenses/default--license,2011-11-21,http://creativecommons.org/licenses/by-nc/3.0,2011-11-29,http://www.abcpublishing.org/content/40/3/e24.full.pdf,http://www.abcpublishing.org/content/40/3/e24.full.pdf
10.5555/nar/gkr1000,http://creativecommons.org/licenses/by-nc/3.0,2011-11-29,http://www.abcpublishing.org/licenses/default--license,2011-11-21,http://creativecommons.org/licenses/by-nc/3.0,2011-11-29,http://www.abcpublishing.org/content/40/3/e24.full.pdf,http://www.abcpublishing.org/content/40/3/e24.full.pdf
10.5555/nar/gkr1069,http://creativecommons.org/licenses/by-nc/3.0,2011-12-01,http://www.abcpublishing.org/licenses/default--license,2011-11-21,http://creativecommons.org/licenses/by-nc/3.0,2011-12-01,http://www.abcpublishing.org/content/40/3/e25.full.pdf,http://www.abcpublishing.org/content/40/3/e25.full.pdf
10.5555/nar/gkr1085,http://creativecommons.org/licenses/by-nc/3.0,2011-11-28,http://www.abcpublishing.org/licenses/default--license,2011-11-21,http://creativecommons.org/licenses/by-nc/3.0,2011-11-28,http://www.abcpublishing.org/content/40/3/e19.full.pdf,http://www.abcpublishing.org/content/40/3/e19.full.pdf
10.5555/nar/gkr1103,http://creativecommons.org/licenses/by-nc/3.0,2011-11-25,http://www.abcpublishing.org/licenses/default--license,2011-11-21,http://creativecommons.org/licenses/by-nc/3.0,2011-11-25,http://www.abcpublishing.org/content/40/3/e18.full.pdf,http://www.abcpublishing.org/content/40/3/e18.full.pdf
10.5555/nar/gkr763,http://creativecommons.org/licenses/by-nc/3.0,2011-10-03,http://www.abcpublishing.org/licenses/default--license,2011-11-21,http://creativecommons.org/licenses/by-nc/3.0,2011-10-03,http://www.abcpublishing.org/content/40/3/941.full.pdf,http://www.abcpublishing.org/content/40/3/941.full.pdf
10.5555/nar/gkr779,http://creativecommons.org/licenses/by-nc/3.0,2011-10-05,http://www.abcpublishing.org/licenses/default--license,2011-11-21,http://creativecommons.org/licenses/by-nc/3.0,2011-10-05,http://www.abcpublishing.org/content/40/3/972.full.pdf,http://www.abcpublishing.org/content/40/3/972.full.pdf
10.5555/nar/gkr780,http://creativecommons.org/licenses/by-nc/3.0,2011-09-23,http://www.abcpublishing.org/licenses/default--license,2011-11-21,http://creativecommons.org/licenses/by-nc/3.0,2011-09-23,http://www.abcpublishing.org/content/40/3/1240.full.pdf,http://www.abcpublishing.org/content/40/3/1240.full.pdf
10.5555/nar/gkr786,http://creativecommons.org/licenses/by-nc/3.0,2011-10-05,http://www.abcpublishing.org/licenses/default--license,2011-11-21,http://creativecommons.org/licenses/by-nc/3.0,2011-10-05,http://www.abcpublishing.org/content/40/3/1282.full.pdf,http://www.abcpublishing.org/content/40/3/1282.full.pdf
10.5555/nar/gkr786,http://creativecommons.org/licenses/by-nc/3.0,2011-10-05,http://www.abcpublishing.org/licenses/default--license,2011-11-21,http://creativecommons.org/licenses/by-nc/3.0,2011-10-05,http://www.abcpublishing.org/content/40/3/1282.full.pdf,http://www.abcpublishing.org/content/40/3/1282.full.pdf
10.5555/nar/gkr791,http://creativecommons.org/licenses/by-nc/3.0,2011-09-29,http://www.abcpublishing.org/licenses/default--license,2011-11-21,http://creativecommons.org/licenses/by-nc/3.0,2011-09-29,http://www.abcpublishing.org/content/40/3/1251.full.pdf,http://www.abcpublishing.org/content/40/3/1251.full.pdf
10.5555/nar/gkr791,http://creativecommons.org/licenses/by-nc/3.0,2011-09-29,http://www.abcpublishing.org/licenses/default--license,2011-11-21,http://creativecommons.org/licenses/by-nc/3.0,2011-09-29,http://www.abcpublishing.org/content/40/3/1251.full.pdf,http://www.abcpublishing.org/content/40/3/1251.full.pdf
10.5555/nar/gkr794,http://creativecommons.org/licenses/by-nc/3.0,2011-10-05,http://www.abcpublishing.org/licenses/default--license,2011-11-21,http://creativecommons.org/licenses/by-nc/3.0,2011-10-05,http://www.abcpublishing.org/content/40/3/1299.full.pdf,http://www.abcpublishing.org/content/40/3/1299.full.pdf
10.5555/nar/gkr795,http://creativecommons.org/licenses/by-nc/3.0,2011-09-27,http://www.abcpublishing.org/licenses/default--license,2011-11-21,http://creativecommons.org/licenses/by-nc/3.0,2011-09-27,http://www.abcpublishing.org/content/40/3/963.full.pdf,http://www.abcpublishing.org/content/40/3/963.full.pdf
10.5555/nar/gkr801,http://creativecommons.org/licenses/by-nc/3.0,2011-10-12,http://www.abcpublishing.org/licenses/default--license,2011-11-21,http://creativecommons.org/licenses/by-nc/3.0,2011-10-12,http://www.abcpublishing.org/content/40/3/1214.full.pdf,http://www.abcpublishing.org/content/40/3/1214.full.pdf
10.5555/nar/gkr809,http://creativecommons.org/licenses/by-nc/3.0,2011-10-12,http://www.abcpublishing.org/licenses/default--license,2011-11-21,http://creativecommons.org/licenses/by-nc/3.0,2011-10-12,http://www.abcpublishing.org/content/40/3/1203.full.pdf,http://www.abcpublishing.org/content/40/3/1203.full.pdf
10.5555/nar/gkr812,http://creativecommons.org/licenses/by-nc/3.0,2011-10-05,http://www.abcpublishing.org/licenses/default--license,2011-11-21,http://creativecommons.org/licenses/by-nc/3.0,2011-10-05,http://www.abcpublishing.org/content/40/3/1318.full.pdf,http://www.abcpublishing.org/content/40/3/1318.full.pdf
10.5555/nar/gkr812,http://creativecommons.org/licenses/by-nc/3.0,2011-10-05,http://www.abcpublishing.org/licenses/default--license,2011-11-21,http://creativecommons.org/licenses/by-nc/3.0,2011-10-05,http://www.abcpublishing.org/content/40/3/1318.full.pdf,http://www.abcpublishing.org/content/40/3/1318.full.pdf
10.5555/nar/gkr813,http://creativecommons.org/licenses/by-nc/3.0,2011-10-05,http://www.abcpublishing.org/licenses/default--license,2011-11-21,http://creativecommons.org/licenses/by-nc/3.0,2011-10-05,http://www.abcpublishing.org/content/40/3/1148.full.pdf,http://www.abcpublishing.org/content/40/3/1148.full.pdf
10.5555/nar/gkr818,http://creativecommons.org/licenses/by-nc/3.0,2011-10-03,http://www.abcpublishing.org/licenses/default--license,2011-11-21,http://creativecommons.org/licenses/by-nc/3.0,2011-10-03,http://www.abcpublishing.org/content/40/3/981.full.pdf,http://www.abcpublishing.org/content/40/3/981.full.pdf
10.5555/nar/gkr821,http://creativecommons.org/licenses/by-nc/3.0,2011-10-17,http://www.abcpublishing.org/licenses/default--license,2011-11-21,http://creativecommons.org/licenses/by-nc/3.0,2011-10-17,http://www.abcpublishing.org/content/40/3/1174.full.pdf,http://www.abcpublishing.org/content/40/3/1174.full.pdf
10.5555/nar/gkr830,http://creativecommons.org/licenses/by-nc/3.0,2011-10-05,http://www.abcpublishing.org/licenses/default--license,2011-11-21,http://creativecommons.org/licenses/by-nc/3.0,2011-10-05,http://www.abcpublishing.org/content/40/3/1009.full.pdf,http://www.abcpublishing.org/content/40/3/1009.full.pdf
10.5555/nar/gkr833,http://creativecommons.org/licenses/by-nc/3.0,2011-10-18,http://www.abcpublishing.org/licenses/default--license,2011-11-21,http://creativecommons.org/licenses/by-nc/3.0,2011-10-18,http://www.abcpublishing.org/content/40/3/1345.full.pdf,http://www.abcpublishing.org/content/40/3/1345.full.pdf
10.5555/nar/gkr833,http://creativecommons.org/licenses/by-nc/3.0,2011-10-18,http://www.abcpublishing.org/licenses/default--license,2011-11-21,http://creativecommons.org/licenses/by-nc/3.0,2011-10-18,http://www.abcpublishing.org/content/40/3/1345.full.pdf,http://www.abcpublishing.org/content/40/3/1345.full.pdf
10.5555/nar/gkr834,http://creativecommons.org/licenses/by-nc/3.0,2011-10-13,http://www.abcpublishing.org/licenses/default--license,2011-11-21,http://creativecommons.org/licenses/by-nc/3.0,2011-10-13,http://www.abcpublishing.org/content/40/3/1131.full.pdf,http://www.abcpublishing.org/content/40/3/1131.full.pdf
10.5555/nar/gkr836,http://creativecommons.org/licenses/by-nc/3.0,2011-10-07,http://www.abcpublishing.org/licenses/default--license,2011-11-21,http://creativecommons.org/licenses/by-nc/3.0,2011-10-07,http://www.abcpublishing.org/content/40/3/1091.full.pdf,http://www.abcpublishing.org/content/40/3/1091.full.pdf
10.5555/nar/gkr838,http://creativecommons.org/licenses/by-nc/3.0,2011-10-05,http://www.abcpublishing.org/licenses/default--license,2011-11-21,http://creativecommons.org/licenses/by-nc/3.0,2011-10-05,http://www.abcpublishing.org/content/40/3/1077.full.pdf,http://www.abcpublishing.org/content/40/3/1077.full.pdf
10.5555/nar/gkr838,http://creativecommons.org/licenses/by-nc/3.0,2011-10-05,http://www.abcpublishing.org/licenses/default--license,2011-11-21,http://creativecommons.org/licenses/by-nc/3.0,2011-10-05,http://www.abcpublishing.org/content/40/3/1077.full.pdf,http://www.abcpublishing.org/content/40/3/1077.full.pdf
10.5555/nar/gkr849,http://creativecommons.org/licenses/by-nc/3.0,2011-10-12,http://www.abcpublishing.org/licenses/default--license,2011-11-21,http://creativecommons.org/licenses/by-nc/3.0,2011-10-12,http://www.abcpublishing.org/content/40/3/1033.full.pdf,http://www.abcpublishing.org/content/40/3/1033.full.pdf
10.5555/nar/gkr849,http://creativecommons.org/licenses/by-nc/3.0,2011-10-12,http://www.abcpublishing.org/licenses/default--license,2011-11-21,http://creativecommons.org/licenses/by-nc/3.0,2011-10-12,http://www.abcpublishing.org/content/40/3/1033.full.pdf,http://www.abcpublishing.org/content/40/3/1033.full.pdf
10.5555/nar/gkr856,http://creativecommons.org/licenses/by-nc/3.0,2011-10-17,http://www.abcpublishing.org/licenses/default--license,2011-11-21,http://creativecommons.org/licenses/by-nc/3.0,2011-10-17,http://www.abcpublishing.org/content/40/3/1118.full.pdf,http://www.abcpublishing.org/content/40/3/1118.full.pdf
10.5555/nar/gkr858,http://creativecommons.org/licenses/by-nc/3.0,2011-10-18,http://www.abcpublishing.org/licenses/default--license,2011-11-21,http://creativecommons.org/licenses/by-nc/3.0,2011-10-18,http://www.abcpublishing.org/content/40/3/1191.full.pdf,http://www.abcpublishing.org/content/40/3/1191.full.pdf
10.5555/nar/gkr858,http://creativecommons.org/licenses/by-nc/3.0,2011-10-18,http://www.abcpublishing.org/licenses/default--license,2011-11-21,http://creativecommons.org/licenses/by-nc/3.0,2011-10-18,http://www.abcpublishing.org/content/40/3/1191.full.pdf,http://www.abcpublishing.org/content/40/3/1191.full.pdf
10.5555/nar/gkr887,http://creativecommons.org/licenses/by-nc/3.0,2011-11-29,http://www.abcpublishing.org/licenses/default--license,2011-11-21,http://creativecommons.org/licenses/by-nc/3.0,2011-11-29,http://www.abcpublishing.org/content/40/3/e23.full.pdf,http://www.abcpublishing.org/content/40/3/e23.full.pdf
10.5555/nar/gkr890,http://creativecommons.org/licenses/by-nc/3.0,2011-10-18,http://www.abcpublishing.org/licenses/default--license,2011-11-21,http://creativecommons.org/licenses/by-nc/3.0,2011-10-18,http://www.abcpublishing.org/content/40/3/1381.full.pdf,http://www.abcpublishing.org/content/40/3/1381.full.pdf
10.5555/nar/gkr890,http://creativecommons.org/licenses/by-nc/3.0,2011-10-18,http://www.abcpublishing.org/licenses/default--license,2011-11-21,http://creativecommons.org/licenses/by-nc/3.0,2011-10-18,http://www.abcpublishing.org/content/40/3/1381.full.pdf,http://www.abcpublishing.org/content/40/3/1381.full.pdf
10.5555/nar/gkr890,http://creativecommons.org/licenses/by-nc/3.0,2011-10-18,http://www.abcpublishing.org/licenses/default--license,2011-11-21,http://creativecommons.org/licenses/by-nc/3.0,2011-10-18,http://www.abcpublishing.org/content/40/3/1381.full.pdf,http://www.abcpublishing.org/content/40/3/1381.full.pdf
10.5555/nar/gkr908,http://creativecommons.org/licenses/by-nc/3.0,2011-11-29,http://www.abcpublishing.org/licenses/default--license,2011-11-21,http://creativecommons.org/licenses/by-nc/3.0,2011-11-29,http://www.abcpublishing.org/content/40/3/e21.full.pdf,http://www.abcpublishing.org/content/40/3/e21.full.pdf
10.5555/nar/gkr908,http://creativecommons.org/licenses/by-nc/3.0,2011-11-29,http://www.abcpublishing.org/licenses/default--license,2011-11-21,http://creativecommons.org/licenses/by-nc/3.0,2011-11-29,http://www.abcpublishing.org/content/40/3/e21.full.pdf,http://www.abcpublishing.org/content/40/3/e21.full.pdf